===============================================================================================
This Document is used to describe versions of .bof files and the test result.
Author: Runbin Shi
===============================================================================================

|---------------+------------------------------------------------------------------+-------------------------|
| ver           | changes                                                          | res                     |
|---------------+------------------------------------------------------------------+-------------------------|
| v01           | extract the project from Matlab to XPS                           | correct                 |
|---------------+------------------------------------------------------------------+-------------------------|
| v02           | Add a scale 1/4 module thta the output should be 1/4,            | TBA                     |
|               | However, some timing issues (slace -0.05) was ignored.           |                         |
|---------------+------------------------------------------------------------------+-------------------------|
| v03           | Use the MMCM in adc5g_demux1 to generate the 125Mhz clk          | Cannot                  |
|               | Add the freq_down and freq_up module in it                       | Get TCP Packet          |
|---------------+------------------------------------------------------------------+-------------------------|
| v04           | Revent the 250Mhz and a simple data_bypass                       | correct                 |
|---------------+------------------------------------------------------------------+-------------------------|
| v06           | Adjust the MMCM parameters, make the input 2Ghz instead of       | Cannot                  |
|               | 500Mhz                                                           | Get TCP Packet          |
|---------------+------------------------------------------------------------------+-------------------------|
| v07           | Revent the adc_input to 500Mhz, but change the DIVBUF from (3,6) | Correct                 |
|               | to (4,8)                                                         |                         |
|---------------+------------------------------------------------------------------+-------------------------|
| v08           | Use the 125Mhz clk the new parameter MMCM generated              | image is not aligned    |
|---------------+------------------------------------------------------------------+-------------------------|
| v09           | Generate with the BUFR instead of MMCM                           | Working Correct!        |
|---------------+------------------------------------------------------------------+-------------------------|
| **ATTENTION** | The MMCM output 125Mhz actually working, we display the image    | **ATTENTION**           |
|               | with a uncorrect approach... What can I say...                   |                         |
|---------------+------------------------------------------------------------------+-------------------------|
| v10           | Revent to v08, clear the BUFR, still use the MMCM to generate    |                         |
|               | 125Mhz clk                                                       | Working Correct!        |
|---------------+------------------------------------------------------------------+-------------------------|
|               | THE FOLLOWING VERSIONS ARE GENERATED WITH XILINX 14.7 PLATFORM   |                         |
|---------------+------------------------------------------------------------------+-------------------------|
| v20           | Gernerate the data_bypass with new mlib and XPS 14.7             | -                       |
|---------------+------------------------------------------------------------------+-------------------------|
| v21           | Add the different clk domain interface                           | -                       |
|---------------+------------------------------------------------------------------+-------------------------|
| v22           | Add the interleave sampling module                               | Worked, but jump points |
|---------------+------------------------------------------------------------------+-------------------------|
| v23           | Change the 125Mhz -> 126Mhz                                      | -                       |
|---------------+------------------------------------------------------------------+-------------------------|
| v24           | Add ILA that connect with some data interface to evaluate the    | -                       |
|               | Data Jump Problem                                                |                         |
|---------------+------------------------------------------------------------------+-------------------------|
| v25           | Imporve the timing of post-route (Some Async Attributes)         | MSB LSB problem finded  |
|---------------+------------------------------------------------------------------+-------------------------|
| v30           | Add data_bypass_topout/topin to flip the data from Matlab ADC    |  Everything Correct!    |
|---------------+------------------------------------------------------------------+-------------------------|
