Release 14.7 ngcbuild P.20131013 (lin64)
Copyright (c) 1995-2013 Xilinx, Inc.  All rights reserved.

Command Line: /data/tools/Xilinx/14.7/ISE_DS/ISE/bin/lin64/unwrapped/ngcbuild -p
xc6vsx475t-1ff1759 top_cw top_cw_complete.ngc

Reading NGO file
"/home/rbshi/roach/roach2_xps_base/top/sysgen/synth_model/top_cw.ngc" ...
Loading design module
"/home/rbshi/roach/roach2_xps_base/top/sysgen/synth_model/xlpersistentdff.ngc"..
.
Loading design module
"/home/rbshi/roach/roach2_xps_base/top/sysgen/synth_model/cntr_11_0_7cba3b1cb5ad
2735.ngc"...
Loading design module
"/home/rbshi/roach/roach2_xps_base/top/sysgen/synth_model/cntr_11_0_e77ed84c083e
84d1.ngc"...

Partition Implementation Status
-------------------------------

  No Partitions were found in this design.

-------------------------------

NGCBUILD Design Results Summary:
  Number of errors:     0
  Number of warnings:   0

Total memory usage is 508468 kilobytes

Writing NGC file "top_cw_complete.ngc" ...
Total REAL time to NGCBUILD completion:  5 sec
Total CPU time to NGCBUILD completion:   5 sec

Writing NGCBUILD log file "top_cw_complete.blc"...
