XSG_core_config	xps:xsg	hw_sys	ROACH2:sx475t
XSG_core_config	xps:xsg	clk_src	adc0_clk
XSG_core_config	xps:xsg	roach_clk_src	sys_clk
XSG_core_config	xps:xsg	roach2_clk_src	adc0_clk
XSG_core_config	xps:xsg	mkdig_clk_src	sys_clk
XSG_core_config	xps:xsg	clk_rate	250
XSG_core_config	xps:xsg	sample_period	1
XSG_core_config	xps:xsg	synthesis_tool	XST
scope_raw_0/snap/bram	xps:bram	arith_type	Unsigned
scope_raw_0/snap/bram	xps:bram	addr_width	10
scope_raw_0/snap/bram	xps:bram	data_width	128
scope_raw_0/snap/bram	xps:bram	reg_prim_output	on
scope_raw_0/snap/bram	xps:bram	reg_core_output	on
scope_raw_0/snap/bram	xps:bram	optimization	Minimum_Area
scope_raw_0/snap/bram	xps:bram	data_bin_pt	0
scope_raw_0/snap/bram	xps:bram	init_vals	[0:2^10-1]
scope_raw_0/snap/bram	xps:bram	sample_rate	1
adc/enable	xps:sw_reg	mode	fields\_of\_equal\_size
adc/enable	xps:sw_reg	io_dir	From\_Processor
adc/enable	xps:sw_reg	io_delay	0
adc/enable	xps:sw_reg	sample_period	1
adc/enable	xps:sw_reg	names	[reg]
adc/enable	xps:sw_reg	bitwidths	32
adc/enable	xps:sw_reg	arith_types	0
adc/enable	xps:sw_reg	bin_pts	0
adc/enable	xps:sw_reg	show_format	off
ethout/dest_ip0	xps:sw_reg	mode	one\_value
ethout/dest_ip0	xps:sw_reg	io_dir	From\_Processor
ethout/dest_ip0	xps:sw_reg	io_delay	0
ethout/dest_ip0	xps:sw_reg	sample_period	1
ethout/dest_ip0	xps:sw_reg	names	reg
ethout/dest_ip0	xps:sw_reg	bitwidths	32
ethout/dest_ip0	xps:sw_reg	arith_types	0
ethout/dest_ip0	xps:sw_reg	bin_pts	0
ethout/dest_ip0	xps:sw_reg	sim_port	on
ethout/dest_ip0	xps:sw_reg	show_format	off
ethout/dest_ip1	xps:sw_reg	mode	one\_value
ethout/dest_ip1	xps:sw_reg	io_dir	From\_Processor
ethout/dest_ip1	xps:sw_reg	io_delay	0
ethout/dest_ip1	xps:sw_reg	sample_period	1
ethout/dest_ip1	xps:sw_reg	names	reg
ethout/dest_ip1	xps:sw_reg	bitwidths	32
ethout/dest_ip1	xps:sw_reg	arith_types	0
ethout/dest_ip1	xps:sw_reg	bin_pts	0
ethout/dest_ip1	xps:sw_reg	sim_port	on
ethout/dest_ip1	xps:sw_reg	show_format	off
ethout/dest_ip2	xps:sw_reg	mode	one\_value
ethout/dest_ip2	xps:sw_reg	io_dir	From\_Processor
ethout/dest_ip2	xps:sw_reg	io_delay	0
ethout/dest_ip2	xps:sw_reg	sample_period	1
ethout/dest_ip2	xps:sw_reg	names	reg
ethout/dest_ip2	xps:sw_reg	bitwidths	32
ethout/dest_ip2	xps:sw_reg	arith_types	0
ethout/dest_ip2	xps:sw_reg	bin_pts	0
ethout/dest_ip2	xps:sw_reg	sim_port	on
ethout/dest_ip2	xps:sw_reg	show_format	off
ethout/dest_ip3	xps:sw_reg	mode	one\_value
ethout/dest_ip3	xps:sw_reg	io_dir	From\_Processor
ethout/dest_ip3	xps:sw_reg	io_delay	0
ethout/dest_ip3	xps:sw_reg	sample_period	1
ethout/dest_ip3	xps:sw_reg	names	reg
ethout/dest_ip3	xps:sw_reg	bitwidths	32
ethout/dest_ip3	xps:sw_reg	arith_types	0
ethout/dest_ip3	xps:sw_reg	bin_pts	0
ethout/dest_ip3	xps:sw_reg	sim_port	on
ethout/dest_ip3	xps:sw_reg	show_format	off
ethout/dest_port0	xps:sw_reg	mode	one\_value
ethout/dest_port0	xps:sw_reg	io_dir	From\_Processor
ethout/dest_port0	xps:sw_reg	io_delay	0
ethout/dest_port0	xps:sw_reg	sample_period	1
ethout/dest_port0	xps:sw_reg	names	reg
ethout/dest_port0	xps:sw_reg	bitwidths	32
ethout/dest_port0	xps:sw_reg	arith_types	0
ethout/dest_port0	xps:sw_reg	bin_pts	0
ethout/dest_port0	xps:sw_reg	sim_port	on
ethout/dest_port0	xps:sw_reg	show_format	off
ethout/dest_port1	xps:sw_reg	mode	one\_value
ethout/dest_port1	xps:sw_reg	io_dir	From\_Processor
ethout/dest_port1	xps:sw_reg	io_delay	0
ethout/dest_port1	xps:sw_reg	sample_period	1
ethout/dest_port1	xps:sw_reg	names	reg
ethout/dest_port1	xps:sw_reg	bitwidths	32
ethout/dest_port1	xps:sw_reg	arith_types	0
ethout/dest_port1	xps:sw_reg	bin_pts	0
ethout/dest_port1	xps:sw_reg	sim_port	on
ethout/dest_port1	xps:sw_reg	show_format	off
ethout/dest_port2	xps:sw_reg	mode	one\_value
ethout/dest_port2	xps:sw_reg	io_dir	From\_Processor
ethout/dest_port2	xps:sw_reg	io_delay	0
ethout/dest_port2	xps:sw_reg	sample_period	1
ethout/dest_port2	xps:sw_reg	names	reg
ethout/dest_port2	xps:sw_reg	bitwidths	32
ethout/dest_port2	xps:sw_reg	arith_types	0
ethout/dest_port2	xps:sw_reg	bin_pts	0
ethout/dest_port2	xps:sw_reg	sim_port	on
ethout/dest_port2	xps:sw_reg	show_format	off
ethout/dest_port3	xps:sw_reg	mode	one\_value
ethout/dest_port3	xps:sw_reg	io_dir	From\_Processor
ethout/dest_port3	xps:sw_reg	io_delay	0
ethout/dest_port3	xps:sw_reg	sample_period	1
ethout/dest_port3	xps:sw_reg	names	reg
ethout/dest_port3	xps:sw_reg	bitwidths	32
ethout/dest_port3	xps:sw_reg	arith_types	0
ethout/dest_port3	xps:sw_reg	bin_pts	0
ethout/dest_port3	xps:sw_reg	sim_port	on
ethout/dest_port3	xps:sw_reg	show_format	off
ethout/rst	xps:sw_reg	mode	fields\_of\_equal\_size
ethout/rst	xps:sw_reg	io_dir	From\_Processor
ethout/rst	xps:sw_reg	io_delay	0
ethout/rst	xps:sw_reg	sample_period	1
ethout/rst	xps:sw_reg	names	[reg]
ethout/rst	xps:sw_reg	bitwidths	32
ethout/rst	xps:sw_reg	arith_types	0
ethout/rst	xps:sw_reg	bin_pts	0
ethout/rst	xps:sw_reg	show_format	off
scope_raw_0/snap/ctrl	xps:sw_reg	mode	one\_value
scope_raw_0/snap/ctrl	xps:sw_reg	io_dir	From\_Processor
scope_raw_0/snap/ctrl	xps:sw_reg	io_delay	0
scope_raw_0/snap/ctrl	xps:sw_reg	sample_period	1
scope_raw_0/snap/ctrl	xps:sw_reg	names	reg
scope_raw_0/snap/ctrl	xps:sw_reg	bitwidths	32
scope_raw_0/snap/ctrl	xps:sw_reg	arith_types	0
scope_raw_0/snap/ctrl	xps:sw_reg	bin_pts	0
scope_raw_0/snap/ctrl	xps:sw_reg	show_format	off
scope_raw_0/snap/status	xps:sw_reg	mode	one\_value
scope_raw_0/snap/status	xps:sw_reg	io_dir	To\_Processor
scope_raw_0/snap/status	xps:sw_reg	io_delay	0
scope_raw_0/snap/status	xps:sw_reg	sample_period	1
scope_raw_0/snap/status	xps:sw_reg	names	reg
scope_raw_0/snap/status	xps:sw_reg	bitwidths	32
scope_raw_0/snap/status	xps:sw_reg	arith_types	0
scope_raw_0/snap/status	xps:sw_reg	bin_pts	0
scope_raw_0/snap/status	xps:sw_reg	show_format	off
ethout/ten_Gbe0	xps:tengbe_v2	flavour	sfp+
ethout/ten_Gbe0	xps:tengbe_v2	slot	1
ethout/ten_Gbe0	xps:tengbe_v2	port_r1	0
ethout/ten_Gbe0	xps:tengbe_v2	port_r2_cx4	0
ethout/ten_Gbe0	xps:tengbe_v2	port_r2_sfpp	0
ethout/ten_Gbe0	xps:tengbe_v2	rx_dist_ram	off
ethout/ten_Gbe0	xps:tengbe_v2	large_frames	on
ethout/ten_Gbe0	xps:tengbe_v2	show_param	off
ethout/ten_Gbe0	xps:tengbe_v2	pre_emph_r2	1.07
ethout/ten_Gbe0	xps:tengbe_v2	pre_emph	3
ethout/ten_Gbe0	xps:tengbe_v2	post_emph_r2	0.18
ethout/ten_Gbe0	xps:tengbe_v2	rxeqmix_r2	7
ethout/ten_Gbe0	xps:tengbe_v2	swing_r2	940
ethout/ten_Gbe0	xps:tengbe_v2	swing	800
ethout/ten_Gbe0	xps:tengbe_v2	fab_en	on
ethout/ten_Gbe0	xps:tengbe_v2	fab_mac	hex2dec('123456780000')
ethout/ten_Gbe0	xps:tengbe_v2	fab_ip	192*(2^24)\_+\_168*(2^16)\_+\_5*(2^8)\_+\_20*(2^0)
ethout/ten_Gbe0	xps:tengbe_v2	fab_udp	10000
ethout/ten_Gbe0	xps:tengbe_v2	fab_gate	1
ethout/ten_Gbe0	xps:tengbe_v2	cpu_rx_en	on
ethout/ten_Gbe0	xps:tengbe_v2	cpu_tx_en	on
ethout/ten_Gbe0	xps:tengbe_v2	ttl	hex2dec('FF')
ethout/ten_Gbe0	xps:tengbe_v2	promisc_mode	off
ethout/ten_Gbe0	xps:tengbe_v2	debug_ctr_width	16
ethout/ten_Gbe0	xps:tengbe_v2	txctr	off
ethout/ten_Gbe0	xps:tengbe_v2	txerrctr	off
ethout/ten_Gbe0	xps:tengbe_v2	txerrctr_len	100
ethout/ten_Gbe0	xps:tengbe_v2	txofctr	off
ethout/ten_Gbe0	xps:tengbe_v2	txfullctr	off
ethout/ten_Gbe0	xps:tengbe_v2	txvldctr	off
ethout/ten_Gbe0	xps:tengbe_v2	txsnaplen	0\_-\_no\_snap
ethout/ten_Gbe0	xps:tengbe_v2	rxctr	off
ethout/ten_Gbe0	xps:tengbe_v2	rxerrctr	off
ethout/ten_Gbe0	xps:tengbe_v2	rxerrctr_len	100
ethout/ten_Gbe0	xps:tengbe_v2	rxofctr	off
ethout/ten_Gbe0	xps:tengbe_v2	rxbadctr	off
ethout/ten_Gbe0	xps:tengbe_v2	rxvldctr	off
ethout/ten_Gbe0	xps:tengbe_v2	rxeofctr	off
ethout/ten_Gbe0	xps:tengbe_v2	rxsnaplen	0\_-\_no\_snap
ethout/ten_Gbe1	xps:tengbe_v2	flavour	sfp+
ethout/ten_Gbe1	xps:tengbe_v2	slot	1
ethout/ten_Gbe1	xps:tengbe_v2	port_r1	0
ethout/ten_Gbe1	xps:tengbe_v2	port_r2_cx4	0
ethout/ten_Gbe1	xps:tengbe_v2	port_r2_sfpp	1
ethout/ten_Gbe1	xps:tengbe_v2	rx_dist_ram	off
ethout/ten_Gbe1	xps:tengbe_v2	large_frames	on
ethout/ten_Gbe1	xps:tengbe_v2	show_param	off
ethout/ten_Gbe1	xps:tengbe_v2	pre_emph_r2	1.07
ethout/ten_Gbe1	xps:tengbe_v2	pre_emph	3
ethout/ten_Gbe1	xps:tengbe_v2	post_emph_r2	0.18
ethout/ten_Gbe1	xps:tengbe_v2	rxeqmix_r2	7
ethout/ten_Gbe1	xps:tengbe_v2	swing_r2	940
ethout/ten_Gbe1	xps:tengbe_v2	swing	800
ethout/ten_Gbe1	xps:tengbe_v2	fab_en	on
ethout/ten_Gbe1	xps:tengbe_v2	fab_mac	hex2dec('123456780000')
ethout/ten_Gbe1	xps:tengbe_v2	fab_ip	192*(2^24)\_+\_168*(2^16)\_+\_5*(2^8)\_+\_20*(2^0)
ethout/ten_Gbe1	xps:tengbe_v2	fab_udp	10000
ethout/ten_Gbe1	xps:tengbe_v2	fab_gate	1
ethout/ten_Gbe1	xps:tengbe_v2	cpu_rx_en	on
ethout/ten_Gbe1	xps:tengbe_v2	cpu_tx_en	on
ethout/ten_Gbe1	xps:tengbe_v2	ttl	hex2dec('FF')
ethout/ten_Gbe1	xps:tengbe_v2	promisc_mode	off
ethout/ten_Gbe1	xps:tengbe_v2	debug_ctr_width	16
ethout/ten_Gbe1	xps:tengbe_v2	txctr	off
ethout/ten_Gbe1	xps:tengbe_v2	txerrctr	off
ethout/ten_Gbe1	xps:tengbe_v2	txerrctr_len	100
ethout/ten_Gbe1	xps:tengbe_v2	txofctr	off
ethout/ten_Gbe1	xps:tengbe_v2	txfullctr	off
ethout/ten_Gbe1	xps:tengbe_v2	txvldctr	off
ethout/ten_Gbe1	xps:tengbe_v2	txsnaplen	0\_-\_no\_snap
ethout/ten_Gbe1	xps:tengbe_v2	rxctr	off
ethout/ten_Gbe1	xps:tengbe_v2	rxerrctr	off
ethout/ten_Gbe1	xps:tengbe_v2	rxerrctr_len	100
ethout/ten_Gbe1	xps:tengbe_v2	rxofctr	off
ethout/ten_Gbe1	xps:tengbe_v2	rxbadctr	off
ethout/ten_Gbe1	xps:tengbe_v2	rxvldctr	off
ethout/ten_Gbe1	xps:tengbe_v2	rxeofctr	off
ethout/ten_Gbe1	xps:tengbe_v2	rxsnaplen	0\_-\_no\_snap
ethout/ten_Gbe2	xps:tengbe_v2	flavour	sfp+
ethout/ten_Gbe2	xps:tengbe_v2	slot	1
ethout/ten_Gbe2	xps:tengbe_v2	port_r1	0
ethout/ten_Gbe2	xps:tengbe_v2	port_r2_cx4	0
ethout/ten_Gbe2	xps:tengbe_v2	port_r2_sfpp	2
ethout/ten_Gbe2	xps:tengbe_v2	rx_dist_ram	off
ethout/ten_Gbe2	xps:tengbe_v2	large_frames	on
ethout/ten_Gbe2	xps:tengbe_v2	show_param	off
ethout/ten_Gbe2	xps:tengbe_v2	pre_emph_r2	1.07
ethout/ten_Gbe2	xps:tengbe_v2	pre_emph	3
ethout/ten_Gbe2	xps:tengbe_v2	post_emph_r2	0.18
ethout/ten_Gbe2	xps:tengbe_v2	rxeqmix_r2	7
ethout/ten_Gbe2	xps:tengbe_v2	swing_r2	940
ethout/ten_Gbe2	xps:tengbe_v2	swing	800
ethout/ten_Gbe2	xps:tengbe_v2	fab_en	on
ethout/ten_Gbe2	xps:tengbe_v2	fab_mac	hex2dec('123456780000')
ethout/ten_Gbe2	xps:tengbe_v2	fab_ip	192*(2^24)\_+\_168*(2^16)\_+\_5*(2^8)\_+\_20*(2^0)
ethout/ten_Gbe2	xps:tengbe_v2	fab_udp	10000
ethout/ten_Gbe2	xps:tengbe_v2	fab_gate	1
ethout/ten_Gbe2	xps:tengbe_v2	cpu_rx_en	on
ethout/ten_Gbe2	xps:tengbe_v2	cpu_tx_en	on
ethout/ten_Gbe2	xps:tengbe_v2	ttl	hex2dec('FF')
ethout/ten_Gbe2	xps:tengbe_v2	promisc_mode	off
ethout/ten_Gbe2	xps:tengbe_v2	debug_ctr_width	16
ethout/ten_Gbe2	xps:tengbe_v2	txctr	off
ethout/ten_Gbe2	xps:tengbe_v2	txerrctr	off
ethout/ten_Gbe2	xps:tengbe_v2	txerrctr_len	100
ethout/ten_Gbe2	xps:tengbe_v2	txofctr	off
ethout/ten_Gbe2	xps:tengbe_v2	txfullctr	off
ethout/ten_Gbe2	xps:tengbe_v2	txvldctr	off
ethout/ten_Gbe2	xps:tengbe_v2	txsnaplen	0\_-\_no\_snap
ethout/ten_Gbe2	xps:tengbe_v2	rxctr	off
ethout/ten_Gbe2	xps:tengbe_v2	rxerrctr	off
ethout/ten_Gbe2	xps:tengbe_v2	rxerrctr_len	100
ethout/ten_Gbe2	xps:tengbe_v2	rxofctr	off
ethout/ten_Gbe2	xps:tengbe_v2	rxbadctr	off
ethout/ten_Gbe2	xps:tengbe_v2	rxvldctr	off
ethout/ten_Gbe2	xps:tengbe_v2	rxeofctr	off
ethout/ten_Gbe2	xps:tengbe_v2	rxsnaplen	0\_-\_no\_snap
ethout/ten_Gbe3	xps:tengbe_v2	flavour	sfp+
ethout/ten_Gbe3	xps:tengbe_v2	slot	1
ethout/ten_Gbe3	xps:tengbe_v2	port_r1	0
ethout/ten_Gbe3	xps:tengbe_v2	port_r2_cx4	0
ethout/ten_Gbe3	xps:tengbe_v2	port_r2_sfpp	3
ethout/ten_Gbe3	xps:tengbe_v2	rx_dist_ram	off
ethout/ten_Gbe3	xps:tengbe_v2	large_frames	on
ethout/ten_Gbe3	xps:tengbe_v2	show_param	off
ethout/ten_Gbe3	xps:tengbe_v2	pre_emph_r2	1.07
ethout/ten_Gbe3	xps:tengbe_v2	pre_emph	3
ethout/ten_Gbe3	xps:tengbe_v2	post_emph_r2	0.18
ethout/ten_Gbe3	xps:tengbe_v2	rxeqmix_r2	7
ethout/ten_Gbe3	xps:tengbe_v2	swing_r2	940
ethout/ten_Gbe3	xps:tengbe_v2	swing	800
ethout/ten_Gbe3	xps:tengbe_v2	fab_en	on
ethout/ten_Gbe3	xps:tengbe_v2	fab_mac	hex2dec('123456780000')
ethout/ten_Gbe3	xps:tengbe_v2	fab_ip	192*(2^24)\_+\_168*(2^16)\_+\_5*(2^8)\_+\_20*(2^0)
ethout/ten_Gbe3	xps:tengbe_v2	fab_udp	10000
ethout/ten_Gbe3	xps:tengbe_v2	fab_gate	1
ethout/ten_Gbe3	xps:tengbe_v2	cpu_rx_en	on
ethout/ten_Gbe3	xps:tengbe_v2	cpu_tx_en	on
ethout/ten_Gbe3	xps:tengbe_v2	ttl	hex2dec('FF')
ethout/ten_Gbe3	xps:tengbe_v2	promisc_mode	off
ethout/ten_Gbe3	xps:tengbe_v2	debug_ctr_width	16
ethout/ten_Gbe3	xps:tengbe_v2	txctr	off
ethout/ten_Gbe3	xps:tengbe_v2	txerrctr	off
ethout/ten_Gbe3	xps:tengbe_v2	txerrctr_len	100
ethout/ten_Gbe3	xps:tengbe_v2	txofctr	off
ethout/ten_Gbe3	xps:tengbe_v2	txfullctr	off
ethout/ten_Gbe3	xps:tengbe_v2	txvldctr	off
ethout/ten_Gbe3	xps:tengbe_v2	txsnaplen	0\_-\_no\_snap
ethout/ten_Gbe3	xps:tengbe_v2	rxctr	off
ethout/ten_Gbe3	xps:tengbe_v2	rxerrctr	off
ethout/ten_Gbe3	xps:tengbe_v2	rxerrctr_len	100
ethout/ten_Gbe3	xps:tengbe_v2	rxofctr	off
ethout/ten_Gbe3	xps:tengbe_v2	rxbadctr	off
ethout/ten_Gbe3	xps:tengbe_v2	rxvldctr	off
ethout/ten_Gbe3	xps:tengbe_v2	rxeofctr	off
ethout/ten_Gbe3	xps:tengbe_v2	rxsnaplen	0\_-\_no\_snap
XSG_core_config	xps:xsg	hw_sys	ROACH2:sx475t
XSG_core_config	xps:xsg	clk_src	adc0_clk
XSG_core_config	xps:xsg	roach_clk_src	sys_clk
XSG_core_config	xps:xsg	roach2_clk_src	adc0_clk
XSG_core_config	xps:xsg	mkdig_clk_src	sys_clk
XSG_core_config	xps:xsg	clk_rate	250
XSG_core_config	xps:xsg	sample_period	1
XSG_core_config	xps:xsg	synthesis_tool	XST
scope_raw_0/snap	casper:snapshot	storage	bram
scope_raw_0/snap	casper:snapshot	dram_dimm	1
scope_raw_0/snap	casper:snapshot	dram_clock	200
scope_raw_0/snap	casper:snapshot	nsamples	10
scope_raw_0/snap	casper:snapshot	data_width	128
scope_raw_0/snap	casper:snapshot	offset	off
scope_raw_0/snap	casper:snapshot	circap	off
scope_raw_0/snap	casper:snapshot	value	off
scope_raw_0/snap	casper:snapshot	use_dsp48	off
77777	77777	tags	casper:snapshot,xps:bram,xps:sw_reg,xps:tengbe_v2,xps:xsg
77777	77777	system	top
77777	77777	builddate	03-Dec-2016\_20:00:34
